Value,COUNTRY NAME,Country Name,Country Code,Count,GDP_2017
1.0,INDONESIA,Indonesia,IDN,326.0,1015420.0
2.0,MALAYSIA,Malaysia,MYS,55.0,314710.0
3.0,CHILE,Chile,CHL,151.0,277076.0
4.0,BOLIVIA,Bolivia,BOL,192.0,37508.642113
5.0,PERU,Peru,PER,219.0,211389.0
6.0,ARGENTINA,Argentina,ARG,579.0,637430.0
9.0,INDIA,India,IND,579.0,2650730.0
10.0,CHINA,China,CHN,1971.0,12237700.0
11.0,ISRAEL,Israel,ISR,7.0,353268.0
13.0,LEBANON,Lebanon,LBN,1.0,53576.985687
14.0,ETHIOPIA,Ethiopia,ETH,191.0,80561.496134
15.0,S. SUDAN,S. Sudan,,105.0,
16.0,SOMALIA,Somalia,SOM,78.0,7052.0
17.0,KENYA,Kenya,KEN,100.0,79263.075749
18.0,PAKISTAN,Pakistan,PAK,167.0,304952.0
19.0,MALAWI,Malawi,MWI,21.0,6303.292264
20.0,TANZANIA,Tanzania,TZA,156.0,53320.625959
21.0,SYRIA,Syria,,39.0,
22.0,SOMALILAND,Somaliland,,31.0,
23.0,FRANCE,France,FRA,150.0,2582500.0
24.0,SURINAME,Suriname,SUR,24.0,2995.827901
25.0,GUYANA,Guyana,GUY,37.0,3621.0460049999997
26.0,SOUTH KOREA,South Korea,KOR,21.0,1530750.0
27.0,NORTH KOREA,North Korea,PRK,27.0,
28.0,MOROCCO,Morocco,MAR,117.0,109709.0
29.0,W. SAHARA,W. Sahara,,19.0,
30.0,COSTA RICA,Costa Rica,CRI,7.0,57285.984448
31.0,NICARAGUA,Nicaragua,NIC,23.0,13814.261536000002
32.0,CONGO,Congo,COG,58.0,8701.3348
33.0,DEM. REP. CONGO,Dem. Rep. Congo,,392.0,
34.0,BHUTAN,Bhutan,BTN,8.0,2528.007911
35.0,UKRAINE,Ukraine,UKR,146.0,112154.0
36.0,BELARUS,Belarus,BLR,59.0,54456.465473000004
37.0,NAMIBIA,Namibia,NAM,150.0,13253.698015
38.0,SOUTH AFRICA,South Africa,ZAF,231.0,348872.0
41.0,OMAN,Oman,OMN,57.0,70783.875163
42.0,UZBEKISTAN,Uzbekistan,UZB,98.0,49677.172714
43.0,KAZAKHSTAN,Kazakhstan,KAZ,685.0,162887.0
44.0,TAJIKISTAN,Tajikistan,TJK,33.0,7146.449583
45.0,LITHUANIA,Lithuania,LTU,18.0,47544.459558999995
46.0,BRAZIL,Brazil,BRA,1456.0,2053590.0
47.0,URUGUAY,Uruguay,URY,38.0,56156.972158000004
48.0,MONGOLIA,Mongolia,MNG,382.0,11433.635876
49.0,RUSSIA,Russia,RUS,6065.0,1578420.0
50.0,CZECHIA,Czechia,,18.0,
51.0,GERMANY,Germany,DEU,98.0,3693200.0
52.0,ESTONIA,Estonia,EST,16.0,26611.651599
53.0,LATVIA,Latvia,LVA,19.0,30463.302413999998
54.0,NORWAY,Norway,NOR,172.0,399489.0
55.0,SWEDEN,Sweden,SWE,167.0,535607.0
56.0,FINLAND,Finland,FIN,126.0,252302.0
57.0,VIETNAM,Vietnam,VNM,57.0,223780.0
58.0,CAMBODIA,Cambodia,KHM,31.0,22158.209503000002
59.0,LUXEMBOURG,Luxembourg,LUX,1.0,62316.359824
60.0,UNITED ARAB EMIRATES,United Arab Emirates,ARE,14.0,382575.0
61.0,BELGIUM,Belgium,BEL,8.0,494764.0
62.0,GEORGIA,Georgia,GEO,16.0,15081.338091999998
63.0,MACEDONIA,Macedonia,MKD,4.0,11279.509014
64.0,ALBANIA,Albania,ALB,7.0,13038.5383
65.0,AZERBAIJAN,Azerbaijan,AZE,16.0,40747.792238
66.0,KOSOVO,Kosovo,,3.0,
67.0,TURKEY,Turkey,TUR,171.0,851549.0
68.0,SPAIN,Spain,ESP,111.0,1314310.0
69.0,LAOS,Laos,LAO,39.0,16853.087485
70.0,KYRGYZSTAN,Kyrgyzstan,KGZ,43.0,7564.7388359999995
71.0,ARMENIA,Armenia,ARM,8.0,11536.590636
72.0,DENMARK,Denmark,DNK,16.0,329866.0
73.0,LIBYA,Libya,LBY,305.0,38107.728083
74.0,TUNISIA,Tunisia,TUN,33.0,39952.095561
75.0,ROMANIA,Romania,ROU,56.0,211884.0
76.0,HUNGARY,Hungary,HUN,22.0,139761.0
77.0,SLOVAKIA,Slovakia,SVK,15.0,95617.67026
78.0,POLAND,Poland,POL,85.0,526466.0
79.0,IRELAND,Ireland,IRL,19.0,331430.0
80.0,UNITED KINGDOM,United Kingdom,GBR,69.0,2637870.0
81.0,GREECE,Greece,GRC,26.0,203086.0
82.0,ZAMBIA,Zambia,ZMB,133.0,25868.142073
83.0,SIERRA LEONE,Sierra Leone,SLE,12.0,3775.0473340000003
84.0,GUINEA,Guinea,GIN,39.0,10472.514515
85.0,LIBERIA,Liberia,LBR,15.0,3285.455
86.0,CENTRAL AFRICAN REP.,Central African Rep.,,105.0,
87.0,SUDAN,Sudan,SDN,324.0,117488.0
88.0,DJIBOUTI,Djibouti,DJI,4.0,1844.6744350000001
89.0,ERITREA,Eritrea,ERI,25.0,
90.0,AUSTRIA,Austria,AUT,22.0,416836.0
91.0,IRAQ,Iraq,IRQ,86.0,192061.0
92.0,ITALY,Italy,ITA,73.0,1943840.0
93.0,SWITZERLAND,Switzerland,CHE,9.0,678965.0
94.0,IRAN,Iran,IRN,328.0,454013.0
95.0,NETHERLANDS,Netherlands,NLD,10.0,830573.0
97.0,C??TE D'IVOIRE,C??te d'Ivoire,,56.0,
98.0,SERBIA,Serbia,SRB,19.0,41431.648800999996
99.0,MALI,Mali,MLI,222.0,15334.336143999999
100.0,SENEGAL,Senegal,SEN,39.0,21070.225735
101.0,NIGERIA,Nigeria,NGA,155.0,375745.0
102.0,BENIN,Benin,BEN,18.0,9246.696924
103.0,ANGOLA,Angola,AGO,213.0,122124.0
104.0,CROATIA,Croatia,HRV,11.0,55213.087271000004
105.0,SLOVENIA,Slovenia,SVN,5.0,48769.655479
106.0,QATAR,Qatar,QAT,2.0,166929.0
107.0,SAUDI ARABIA,Saudi Arabia,SAU,350.0,686738.0
108.0,BOTSWANA,Botswana,BWA,106.0,17406.565822999997
109.0,ZIMBABWE,Zimbabwe,ZWE,69.0,22040.9023
110.0,BULGARIA,Bulgaria,BGR,29.0,58220.973783
111.0,THAILAND,Thailand,THA,89.0,455303.0
113.0,HAITI,Haiti,HTI,3.0,8408.150518
114.0,DOMINICAN REP.,Dominican Rep.,,9.0,
115.0,CHAD,Chad,TCD,221.0,9871.247732
116.0,KUWAIT,Kuwait,KWT,4.0,120126.0
117.0,EL SALVADOR,El Salvador,SLV,4.0,24805.4396
118.0,GUATEMALA,Guatemala,GTM,19.0,75620.095538
119.0,TIMOR-LESTE,Timor-Leste,,2.0,
120.0,BRUNEI,Brunei,BRN,1.0,12128.089001999999
122.0,ALGERIA,Algeria,DZA,439.0,167555.0
123.0,MOZAMBIQUE,Mozambique,MOZ,141.0,12645.508634
124.0,ESWATINI,eSwatini,,3.0,
125.0,BURUNDI,Burundi,BDI,5.0,3172.416146
126.0,RWANDA,Rwanda,RWA,4.0,9135.454442
127.0,MYANMAR,Myanmar,MMR,122.0,67068.745521
128.0,BANGLADESH,Bangladesh,BGD,24.0,249724.0
130.0,AFGHANISTAN,Afghanistan,AFG,127.0,19543.976895
131.0,MONTENEGRO,Montenegro,MNE,3.0,4844.5920670000005
132.0,BOSNIA AND HERZ.,Bosnia and Herz.,,13.0,
133.0,UGANDA,Uganda,UGA,40.0,25995.03185
135.0,CUBA,Cuba,CUB,18.0,96851.0
136.0,HONDURAS,Honduras,HND,18.0,22978.532897
137.0,ECUADOR,Ecuador,ECU,44.0,104296.0
138.0,COLOMBIA,Colombia,COL,195.0,314458.0
139.0,PARAGUAY,Paraguay,PRY,74.0,39667.400816
140.0,PORTUGAL,Portugal,PRT,18.0,219308.0
141.0,MOLDOVA,Moldova,MDA,8.0,8128.493431999999
142.0,TURKMENISTAN,Turkmenistan,TKM,100.0,37926.285714
143.0,JORDAN,Jordan,JOR,17.0,40068.308451
144.0,NEPAL,Nepal,NPL,27.0,24880.266905
145.0,LESOTHO,Lesotho,LSO,6.0,2578.2653579999997
146.0,CAMEROON,Cameroon,CMR,75.0,34922.782311
147.0,GABON,Gabon,GAB,44.0,15013.950984000001
148.0,NIGER,Niger,NER,211.0,8119.710126000001
149.0,BURKINA FASO,Burkina Faso,BFA,49.0,12322.864245
150.0,TOGO,Togo,TGO,7.0,4757.776485
151.0,GHANA,Ghana,GHA,39.0,58996.776238
152.0,GUINEA-BISSAU,Guinea-Bissau,GNB,5.0,1346.841897
154.0,UNITED STATES OF AMERICA,United States of America,,2317.0,
155.0,CANADA,Canada,CAN,3546.0,1647120.0
156.0,MEXICO,Mexico,MEX,359.0,1150890.0
157.0,BELIZE,Belize,BLZ,3.0,1862.6148
158.0,PANAMA,Panama,PAN,13.0,62283.756584
159.0,VENEZUELA,Venezuela,VEN,154.0,
160.0,PAPUA NEW GUINEA,Papua New Guinea,PNG,79.0,20536.314601
161.0,EGYPT,Egypt,EGY,190.0,235369.0
162.0,YEMEN,Yemen,YEM,80.0,31267.675216000003
163.0,MAURITANIA,Mauritania,MRT,182.0,5024.708656
164.0,EQ. GUINEA,Eq. Guinea,,5.0,
170.0,SIACHEN GLACIER,Siachen Glacier,,1.0,
171.0,BAIKONUR,Baikonur,,1.0,
172.0,AKROTIRI,Akrotiri,,1.0,
173.0,ANTARCTICA,Antarctica,,12528.0,
174.0,AUSTRALIA,Australia,AUS,1441.0,1323420.0
175.0,GREENLAND,Greenland,GRL,1381.0,
176.0,FIJI,Fiji,FJI,4.0,5061.202767
177.0,NEW ZEALAND,New Zealand,NZL,60.0,204139.0
178.0,NEW CALEDONIA,New Caledonia,,3.0,
179.0,MADAGASCAR,Madagascar,MDG,106.0,11499.803806999998
180.0,PHILIPPINES,Philippines,PHL,45.0,313595.0
181.0,SRI LANKA,Sri Lanka,LKA,13.0,87357.205923
183.0,ARUBA,Aruba,,1.0,
184.0,BAHAMAS,Bahamas,BHS,1.0,12162.1
186.0,TAIWAN,Taiwan,,7.0,
187.0,JAPAN,Japan,JPN,81.0,4872420.0
189.0,ICELAND,Iceland,ISL,43.0,24488.46701
191.0,FR. POLYNESIA,Fr. Polynesia,,1.0,
192.0,FR. S. ANTARCTIC LANDS,Fr. S. Antarctic Lands,,3.0,
199.0,BARBADOS,Barbados,BRB,1.0,4673.5
208.0,PUERTO RICO,Puerto Rico,PRI,2.0,
211.0,JAMAICA,Jamaica,JAM,2.0,14781.107822
219.0,CABO VERDE,Cabo Verde,,1.0,
223.0,ISLE OF MAN,Isle of Man,,1.0,
228.0,SINGAPORE,Singapore,SGP,1.0,323907.0
232.0,WALLIS AND FUTUNA IS.,Wallis and Futuna Is.,,1.0,
234.0,SOLOMON IS.,Solomon Is.,,4.0,
239.0,S. GEO. AND THE IS.,S. Geo. and the Is.,,1.0,
240.0,FALKLAND IS.,Falkland Is.,,3.0,
241.0,VANUATU,Vanuatu,VUT,3.0,862.8797890000001
